time,humidity,temperature
2024-01-11_10:54:53,19.1%,19.1degC
2024-01-11_10:55:04,18.9%,19.1degC
2024-01-11_10:55:14,19.0%,19.1degC
2024-01-11_10:55:25,19.1%,19.1degC
2024-01-11_10:55:35,19.1%,19.1degC
2024-01-11_10:55:45,19.0%,19.1degC
2024-01-11_10:55:56,19.0%,19.1degC
2024-01-11_10:56:06,18.9%,19.1degC
2024-01-11_10:56:16,18.9%,19.1degC
2024-01-11_10:56:27,18.9%,19.1degC
2024-01-11_10:56:37,18.9%,19.1degC
2024-01-11_10:56:47,18.9%,19.1degC
2024-01-11_10:56:58,18.9%,19.1degC
2024-01-11_10:57:08,18.8%,19.1degC
2024-01-11_10:57:19,18.8%,19.2degC
2024-01-11_10:57:29,18.8%,19.1degC
2024-01-11_10:57:39,18.8%,19.2degC
2024-01-11_10:57:50,18.8%,19.2degC
2024-01-11_10:58:00,18.8%,19.2degC
2024-01-11_10:58:10,18.8%,19.2degC
2024-01-11_10:58:21,18.9%,19.2degC
2024-01-11_10:58:31,19.0%,19.1degC
2024-01-11_10:58:41,19.0%,19.1degC
2024-01-11_10:58:52,19.0%,19.1degC
2024-01-11_10:59:02,19.0%,19.1degC
2024-01-11_10:59:12,18.9%,19.1degC
2024-01-11_10:59:23,19.0%,19.1degC
2024-01-11_10:59:33,19.1%,19.1degC
2024-01-11_10:59:44,19.0%,19.1degC
2024-01-11_10:59:54,18.9%,19.1degC
2024-01-11_11:00:04,19.1%,19.1degC
2024-01-11_11:00:15,19.0%,19.1degC
2024-01-11_11:00:25,19.0%,19.1degC
2024-01-11_11:00:35,19.0%,19.1degC
2024-01-11_11:00:46,18.9%,19.1degC
2024-01-11_11:00:56,18.9%,19.1degC
2024-01-11_11:01:06,19.0%,19.1degC
2024-01-11_11:01:17,19.1%,19.1degC
2024-01-11_11:01:27,19.1%,19.1degC
2024-01-11_11:01:38,19.4%,19.1degC
2024-01-11_11:02:32,19.5%,19.1degC
2024-01-11_11:02:43,19.2%,19.2degC
2024-01-11_11:02:53,19.3%,19.2degC
2024-01-11_11:03:03,19.4%,19.1degC
2024-01-11_11:03:14,19.4%,19.1degC
2024-01-11_11:03:24,19.3%,19.1degC
2024-01-11_11:03:35,19.3%,19.1degC
2024-01-11_11:03:45,19.3%,19.1degC
2024-01-11_11:03:55,19.3%,19.1degC
2024-01-11_11:04:06,19.3%,19.1degC
2024-01-11_11:04:16,19.4%,19.1degC
2024-01-11_11:04:26,19.5%,19.1degC
2024-01-11_11:04:37,19.4%,19.1degC
2024-01-11_11:04:47,19.4%,19.1degC
2024-01-11_11:04:57,19.4%,19.1degC
2024-01-11_11:05:08,19.5%,19.1degC
2024-01-11_11:05:18,19.5%,19.1degC
2024-01-11_11:05:29,19.6%,19.1degC
2024-01-11_11:05:39,19.6%,19.1degC
2024-01-11_11:05:49,19.7%,19.1degC
2024-01-11_11:06:00,19.6%,19.1degC
2024-01-11_11:06:10,19.6%,19.0degC
2024-01-11_11:06:20,19.5%,19.1degC
2024-01-11_11:06:31,19.5%,19.1degC
2024-01-11_11:06:41,19.5%,19.1degC
2024-01-11_11:06:51,19.5%,19.1degC
2024-01-11_11:07:02,19.4%,19.1degC
2024-01-11_11:07:12,19.6%,19.1degC
2024-01-11_11:07:22,19.4%,19.1degC
2024-01-11_11:07:33,19.4%,19.0degC
2024-01-11_11:07:43,19.5%,19.1degC
2024-01-11_11:07:54,19.5%,19.1degC
2024-01-11_11:08:04,19.5%,19.1degC
2024-01-11_11:08:14,19.5%,19.1degC
2024-01-11_11:08:25,19.4%,19.0degC
2024-01-11_11:08:35,19.5%,19.0degC
2024-01-11_11:08:45,19.4%,19.1degC
2024-01-11_11:08:56,19.4%,19.1degC
2024-01-11_11:09:06,19.3%,19.1degC
2024-01-11_11:09:16,19.3%,19.1degC
2024-01-11_11:09:27,19.4%,19.1degC
2024-01-11_11:09:37,19.3%,19.1degC
2024-01-11_11:09:48,19.3%,19.1degC
2024-01-11_11:09:58,19.2%,19.1degC
2024-01-11_11:10:08,19.3%,19.1degC
2024-01-11_11:10:19,19.4%,19.1degC
2024-01-11_11:10:29,19.3%,19.1degC
2024-01-11_11:10:39,19.3%,19.1degC
2024-01-11_11:10:50,19.3%,19.1degC
2024-01-11_11:11:00,19.3%,19.1degC
2024-01-11_11:11:10,19.3%,19.1degC
2024-01-11_11:11:21,19.3%,19.1degC
2024-01-11_11:11:31,19.4%,19.1degC
2024-01-11_11:11:41,19.4%,19.1degC
2024-01-11_11:11:52,19.4%,19.1degC
2024-01-11_11:12:02,19.5%,19.1degC
2024-01-11_11:12:13,19.7%,19.1degC
2024-01-11_11:12:23,19.7%,19.1degC
2024-01-11_11:12:33,19.7%,19.1degC
2024-01-11_11:12:44,19.6%,19.1degC
2024-01-11_11:12:54,19.6%,19.0degC
2024-01-11_11:13:04,19.6%,19.0degC
2024-01-11_11:13:15,19.7%,19.1degC
2024-01-11_11:13:25,19.7%,19.1degC
2024-01-11_11:13:35,19.8%,19.1degC
2024-01-11_11:13:46,19.9%,19.1degC
2024-01-11_11:13:56,19.8%,19.1degC
2024-01-11_11:14:07,19.8%,19.1degC
2024-01-11_11:14:17,19.8%,19.1degC
2024-01-11_11:14:27,19.7%,19.1degC
2024-01-11_11:14:38,19.8%,19.0degC
2024-01-11_11:14:48,19.7%,19.1degC
2024-01-11_11:14:58,19.6%,19.1degC
2024-01-11_11:15:09,19.6%,19.1degC
2024-01-11_11:15:19,19.4%,19.1degC
2024-01-11_11:15:29,19.5%,19.1degC
2024-01-11_11:15:40,19.5%,19.1degC
2024-01-11_11:15:50,19.5%,19.1degC
2024-01-11_11:16:00,19.5%,19.0degC
2024-01-11_11:16:11,19.5%,19.0degC
2024-01-11_11:16:21,19.5%,19.0degC
2024-01-11_11:16:32,19.6%,19.0degC
2024-01-11_11:16:42,19.5%,19.0degC
2024-01-11_11:16:52,19.6%,19.1degC
2024-01-11_11:17:03,19.5%,19.1degC
2024-01-11_11:17:13,19.6%,19.1degC
2024-01-11_11:17:23,19.5%,19.0degC
2024-01-11_11:17:34,19.6%,19.0degC
2024-01-11_11:17:44,19.8%,19.1degC
2024-01-11_11:17:54,19.8%,19.1degC
2024-01-11_11:18:05,19.8%,19.1degC
2024-01-11_11:18:15,19.6%,19.1degC
2024-01-11_11:18:26,19.6%,19.1degC
2024-01-11_11:18:36,19.7%,19.1degC
2024-01-11_11:18:46,19.7%,19.1degC
2024-01-11_11:18:57,19.7%,19.1degC
2024-01-11_11:19:07,19.7%,19.1degC
2024-01-11_11:19:17,19.7%,19.1degC
2024-01-11_11:19:28,19.7%,19.1degC
2024-01-11_11:19:38,19.6%,19.1degC
2024-01-11_11:19:48,19.6%,19.1degC
2024-01-11_11:19:59,19.4%,19.1degC
2024-01-11_11:20:09,19.5%,19.0degC
2024-01-11_11:20:19,19.6%,19.0degC
2024-01-11_11:20:30,19.4%,19.0degC
2024-01-11_11:20:40,19.4%,19.1degC
2024-01-11_11:20:51,19.4%,19.0degC
2024-01-11_11:21:01,19.4%,19.0degC
2024-01-11_11:21:11,19.4%,19.0degC
2024-01-11_11:21:22,19.4%,19.0degC
2024-01-11_11:21:32,19.5%,19.0degC
2024-01-11_11:21:42,19.4%,19.0degC
2024-01-11_11:21:53,19.5%,19.0degC
2024-01-11_11:22:03,19.5%,19.0degC
2024-01-11_11:22:13,19.6%,19.0degC
2024-01-11_11:22:24,19.7%,19.0degC
2024-01-11_11:22:34,19.6%,19.0degC
2024-01-11_11:22:45,19.6%,19.0degC
2024-01-11_11:22:55,19.6%,19.0degC
2024-01-11_11:23:05,19.5%,19.0degC
2024-01-11_13:51:10,21.6%,19.3degC
2024-01-11_13:51:20,21.2%,19.2degC
2024-01-11_13:51:31,21.2%,19.2degC
2024-01-11_13:51:41,21.2%,19.2degC
2024-01-11_13:51:52,21.1%,19.2degC
2024-01-11_13:52:02,21.2%,19.2degC
2024-01-11_13:52:12,21.1%,19.2degC
2024-01-11_13:52:23,21.2%,19.2degC
2024-01-11_13:52:33,21.2%,19.2degC
2024-01-11_13:52:43,21.1%,19.2degC
2024-01-11_13:52:54,20.9%,19.2degC
2024-01-11_13:53:04,21.0%,19.2degC
2024-01-11_13:53:14,20.9%,19.2degC
2024-01-11_13:53:25,20.9%,19.2degC
2024-01-11_13:53:35,21.0%,19.2degC
2024-01-11_13:53:45,20.9%,19.2degC
2024-01-11_13:53:56,20.9%,19.1degC
2024-01-11_13:54:06,20.9%,19.1degC
2024-01-11_13:54:17,20.9%,19.1degC
2024-01-11_13:54:27,20.8%,19.1degC
2024-01-11_13:54:37,20.9%,19.1degC
2024-01-11_13:54:48,20.8%,19.1degC
2024-01-11_13:54:58,20.8%,19.1degC
2024-01-11_13:55:08,20.8%,19.1degC
2024-01-11_13:55:19,20.8%,19.1degC
2024-01-11_13:55:29,20.8%,19.1degC
2024-01-11_13:55:39,20.9%,19.1degC
2024-01-11_13:55:50,20.8%,19.1degC
2024-01-11_13:56:00,20.9%,19.1degC
2024-01-11_13:56:11,20.8%,19.1degC
2024-01-11_13:56:21,20.8%,19.1degC
2024-01-11_13:56:31,20.8%,19.1degC
2024-01-11_13:56:42,20.7%,19.1degC
2024-01-11_13:56:52,20.7%,19.1degC
2024-01-11_13:57:02,20.7%,19.1degC
2024-01-11_13:57:13,20.8%,19.1degC
2024-01-11_13:57:23,20.7%,19.1degC
2024-01-16_14:05:47,24.6%,19.5degC
2024-01-16_14:05:57,24.7%,19.3degC
2024-01-16_14:06:07,24.8%,19.3degC
2024-01-16_14:06:18,24.7%,19.3degC
2024-01-16_14:06:28,24.7%,19.3degC
2024-01-16_14:06:38,24.5%,19.3degC
2024-01-16_14:06:49,24.6%,19.3degC
2024-01-16_14:06:59,24.5%,19.3degC
2024-01-16_14:07:09,24.5%,19.3degC
2024-01-16_14:07:20,24.4%,19.3degC
2024-01-16_14:07:30,24.5%,19.3degC
2024-01-16_14:07:41,24.4%,19.3degC
2024-01-16_14:07:51,24.3%,19.3degC
2024-01-16_14:08:01,24.4%,19.3degC
2024-01-16_14:08:12,24.4%,19.3degC
2024-01-16_14:08:22,24.3%,19.3degC
2024-01-16_14:31:49,24.3%,19.3degC
2024-01-16_14:31:59,24.0%,19.4degC
2024-01-16_14:32:09,24.0%,19.4degC
2024-01-16_14:32:20,24.0%,19.4degC
2024-01-16_14:32:30,24.1%,19.4degC
2024-01-16_14:32:41,24.1%,19.4degC
2024-01-16_14:32:51,24.1%,19.4degC
2024-01-16_14:33:01,24.0%,19.4degC
2024-01-16_14:33:12,24.1%,19.4degC
2024-01-16_14:33:22,24.1%,19.4degC
2024-01-16_14:33:32,24.1%,19.4degC
2024-01-16_14:33:43,24.1%,19.4degC
2024-01-16_14:33:53,24.0%,19.4degC
2024-01-16_14:34:03,24.1%,19.4degC
2024-01-19_08:39:51,20.4%,19.1degC
2024-01-19_08:40:01,21.4%,18.9degC
2024-01-19_08:40:12,21.4%,18.9degC
2024-01-19_08:40:22,21.3%,18.9degC
2024-01-19_08:40:32,21.3%,18.9degC
2024-01-19_08:40:43,21.4%,18.9degC
2024-01-19_08:40:53,21.2%,18.9degC
2024-01-19_08:41:03,21.2%,18.9degC
2024-01-19_08:41:14,21.4%,18.9degC
2024-01-19_08:41:24,21.4%,18.9degC
2024-01-19_08:41:34,21.4%,18.9degC
2024-01-19_08:41:45,21.2%,18.9degC
2024-01-19_08:41:55,21.2%,18.9degC
2024-01-19_08:42:05,21.2%,18.9degC
2024-01-19_08:42:16,21.2%,18.9degC
2024-01-19_08:42:26,21.2%,18.9degC
2024-01-19_08:43:34,21.4%,18.9degC
2024-01-19_08:43:44,21.5%,18.9degC
2024-01-19_08:43:55,21.5%,18.9degC
2024-01-19_08:44:05,21.5%,18.9degC
2024-01-19_08:44:15,21.5%,18.9degC
2024-01-19_08:44:26,21.6%,18.9degC
2024-01-19_08:44:36,21.6%,18.9degC
2024-01-19_08:44:46,21.4%,19.0degC
2024-01-19_08:44:57,21.5%,19.0degC
2024-01-19_08:45:07,21.4%,19.0degC
2024-01-19_08:45:17,21.5%,19.0degC
2024-01-19_08:45:28,21.5%,19.0degC
2024-01-19_08:45:38,21.6%,19.0degC
2024-01-19_08:45:49,21.7%,19.0degC
2024-01-19_08:45:59,21.7%,19.0degC
2024-01-19_09:19:03,21.6%,19.0degC
2024-01-19_09:19:14,22.4%,19.3degC
2024-01-19_09:19:24,22.6%,19.3degC
2024-01-19_09:19:34,22.6%,19.3degC
2024-01-19_09:19:45,22.6%,19.3degC
2024-01-19_09:19:55,22.6%,19.3degC
2024-01-19_09:20:05,22.7%,19.3degC
2024-01-19_09:20:16,22.7%,19.3degC
2024-01-19_09:20:26,22.8%,19.3degC
2024-01-19_09:20:37,22.8%,19.3degC
2024-01-19_09:20:47,23.1%,19.3degC
2024-01-19_09:20:57,23.1%,19.3degC
2024-01-19_09:21:08,23.2%,19.3degC
2024-01-19_09:21:18,23.3%,19.3degC
2024-01-19_09:21:28,23.5%,19.3degC
2024-01-19_09:21:39,23.5%,19.3degC
2024-01-19_09:21:49,23.7%,19.3degC
2024-01-19_09:21:59,23.6%,19.3degC
2024-01-19_09:22:10,23.9%,19.3degC
2024-01-19_09:22:20,23.9%,19.3degC
2024-01-19_09:22:30,23.9%,19.3degC
2024-01-19_09:22:41,23.8%,19.3degC
2024-01-19_09:22:51,23.8%,19.4degC
2024-01-19_09:23:02,23.7%,19.3degC
2024-01-19_09:23:12,23.7%,19.3degC
2024-01-19_09:23:22,23.7%,19.4degC
2024-01-19_09:23:33,23.5%,19.4degC
2024-01-19_09:23:43,23.6%,19.4degC
2024-01-19_09:23:53,23.5%,19.4degC
2024-01-19_09:24:04,23.5%,19.4degC
2024-01-19_09:24:14,23.3%,19.4degC
2024-01-19_09:24:24,23.3%,19.4degC
2024-01-19_09:24:35,23.2%,19.4degC
2024-01-19_09:24:45,23.2%,19.4degC
2024-01-19_09:24:56,23.2%,19.3degC
2024-01-19_09:25:06,23.1%,19.3degC
2024-01-19_09:25:16,22.8%,19.4degC
2024-01-19_09:25:27,22.9%,19.4degC
2024-01-31_15:28:07,29.4%,20.8degC
2024-01-31_15:28:17,28.9%,20.7degC
2024-01-31_15:28:27,28.8%,20.8degC
2024-01-31_15:28:38,28.9%,20.7degC
2024-01-31_15:28:48,28.7%,20.8degC
2024-01-31_15:28:59,28.7%,20.8degC
2024-01-31_15:29:09,28.7%,20.7degC
2024-01-31_15:29:19,28.7%,20.7degC
2024-01-31_15:29:30,28.7%,20.7degC
2024-01-31_15:29:40,28.8%,20.7degC
2024-01-31_15:29:50,28.7%,20.7degC
2024-01-31_15:30:01,28.7%,20.7degC
2024-01-31_15:30:11,28.7%,20.7degC
2024-01-31_15:30:21,28.7%,20.7degC
2024-01-31_15:30:32,28.7%,20.7degC
2024-01-31_15:30:42,28.7%,20.7degC
2024-01-31_15:30:52,28.6%,20.7degC
2024-01-31_15:31:03,28.7%,20.7degC
2024-01-31_15:31:13,28.7%,20.7degC
2024-01-31_15:31:24,28.7%,20.7degC
2024-01-31_15:31:34,28.7%,20.7degC
2024-01-31_15:31:44,28.7%,20.7degC
2024-01-31_15:31:55,28.6%,20.7degC
2024-01-31_15:32:05,28.6%,20.7degC
2024-01-31_15:32:15,28.7%,20.7degC
2024-01-31_15:32:26,28.7%,20.7degC
2024-01-31_15:32:36,28.7%,20.7degC
2024-01-31_15:32:46,28.6%,20.7degC
2024-01-31_15:32:57,28.6%,20.7degC
2024-01-31_15:33:07,28.6%,20.7degC
2024-01-31_15:33:18,28.6%,20.7degC
2024-01-31_15:33:28,28.7%,20.7degC
2024-01-31_15:33:38,28.7%,20.7degC
2024-01-31_15:33:49,28.7%,20.7degC
2024-01-31_15:33:59,28.7%,20.7degC
2024-01-31_15:34:09,28.7%,20.7degC
2024-01-31_15:34:20,28.7%,20.7degC
2024-01-31_15:34:30,28.7%,20.7degC
2024-01-31_15:34:40,28.7%,20.7degC
2024-01-31_15:34:51,28.7%,20.7degC
2024-01-31_15:35:01,28.7%,20.7degC
2024-02-06_12:04:21,30.2%,21.1degC
2024-02-06_12:04:31,30.2%,21.1degC
2024-02-06_12:04:41,31.4%,21.1degC
2024-02-06_12:04:52,31.5%,21.1degC
2024-02-06_12:05:02,31.6%,21.1degC
2024-02-06_12:05:12,31.8%,21.1degC
2024-02-06_12:05:23,31.8%,21.1degC
2024-02-06_12:05:33,31.7%,21.1degC
2024-02-06_12:05:43,31.7%,21.1degC
2024-02-06_12:05:54,31.8%,21.1degC
2024-02-06_12:06:04,31.7%,21.1degC
2024-02-06_12:06:15,31.8%,21.1degC
2024-02-06_12:06:25,31.8%,21.1degC
2024-02-06_12:06:35,31.9%,21.1degC
2024-02-06_12:06:46,32.0%,21.1degC
2024-02-06_12:06:56,31.9%,21.1degC
2024-02-06_12:07:06,31.9%,21.1degC
2024-02-06_12:07:17,32.0%,21.1degC
2024-02-06_12:07:27,31.9%,21.1degC
2024-02-06_12:07:37,31.9%,21.1degC
2024-02-06_12:07:48,32.0%,21.1degC
2024-02-06_12:07:58,31.8%,21.1degC
2024-02-06_12:08:08,31.9%,21.1degC
2024-02-06_12:08:19,31.9%,21.1degC
2024-02-06_12:08:29,31.8%,21.1degC
2024-02-06_12:08:40,31.8%,21.1degC
2024-02-06_12:08:50,31.9%,21.1degC
2024-02-06_12:09:00,31.8%,21.1degC
2024-02-06_12:09:11,31.8%,21.1degC
2024-02-06_12:09:21,31.7%,21.1degC
2024-02-06_12:09:31,31.8%,21.2degC
2024-02-06_12:09:42,31.9%,21.1degC
2024-02-06_12:09:52,32.1%,21.1degC
2024-02-06_12:10:02,32.0%,21.2degC
2024-02-06_12:10:13,32.2%,21.2degC
2024-02-06_12:10:23,32.2%,21.2degC
2024-02-06_12:10:34,32.2%,21.2degC
2024-02-06_12:10:44,32.2%,21.2degC
2024-02-06_12:10:54,32.2%,21.3degC
2024-02-06_12:11:05,32.2%,21.2degC
2024-02-06_12:11:15,32.2%,21.2degC
2024-02-06_12:11:25,32.2%,21.3degC
2024-02-06_12:11:36,32.2%,21.2degC
2024-02-06_12:11:46,32.2%,21.2degC
2024-02-06_12:11:56,32.5%,21.2degC
2024-02-06_12:12:07,32.5%,21.3degC
2024-02-06_12:12:17,32.5%,21.2degC
2024-02-06_12:12:27,32.6%,21.2degC
2024-02-06_12:12:38,32.6%,21.2degC
2024-02-06_12:12:48,32.6%,21.2degC
2024-02-06_12:12:59,32.7%,21.2degC
2024-02-06_12:13:09,32.6%,21.2degC
2024-02-06_12:13:19,32.6%,21.2degC
2024-02-06_12:13:30,32.6%,21.3degC
2024-02-06_12:13:40,32.6%,21.3degC
2024-02-06_12:13:50,32.4%,21.3degC
2024-02-06_12:14:01,32.5%,21.3degC
2024-02-06_12:14:11,32.5%,21.3degC
2024-02-06_12:14:21,32.3%,21.3degC
2024-02-06_12:14:32,32.3%,21.3degC
2024-02-06_12:14:42,32.1%,21.3degC
2024-02-06_12:14:53,32.2%,21.3degC
2024-02-06_12:15:03,32.2%,21.3degC
2024-02-06_12:15:13,32.2%,21.3degC
2024-02-06_12:15:24,32.1%,21.2degC
2024-02-06_12:15:34,32.2%,21.3degC
2024-02-06_12:15:44,32.1%,21.3degC
2024-02-06_12:15:55,32.1%,21.3degC
2024-02-06_12:16:05,32.1%,21.3degC
2024-02-06_12:16:15,32.2%,21.3degC
2024-02-06_12:16:26,32.2%,21.3degC
2024-02-06_12:16:36,32.1%,21.3degC
2024-02-06_12:16:46,32.1%,21.2degC
2024-02-06_12:16:57,32.1%,21.2degC
2024-02-06_12:17:07,32.2%,21.2degC
2024-02-06_12:17:18,32.1%,21.2degC
2024-02-06_12:17:28,32.1%,21.2degC
2024-02-06_12:17:38,32.1%,21.2degC
2024-02-06_12:17:49,32.3%,21.2degC
2024-02-06_12:17:59,32.4%,21.2degC
2024-02-06_12:18:09,32.6%,21.2degC
2024-02-06_12:18:20,32.4%,21.2degC
2024-02-06_12:18:30,32.3%,21.3degC
2024-02-06_12:18:40,32.3%,21.3degC
2024-02-06_12:18:51,32.2%,21.3degC
2024-02-06_12:19:01,32.2%,21.3degC
2024-02-06_12:19:12,32.2%,21.3degC
2024-02-06_12:19:22,32.2%,21.2degC
2024-02-06_12:19:32,32.2%,21.2degC
2024-02-06_12:19:43,32.2%,21.3degC
2024-02-06_12:19:53,32.2%,21.3degC
2024-02-06_12:20:03,32.3%,21.3degC
2024-02-06_12:20:14,32.3%,21.3degC
2024-02-06_12:20:24,32.2%,21.3degC
2024-02-06_12:20:34,32.3%,21.3degC
2024-02-06_12:20:45,32.4%,21.3degC
2024-02-06_12:20:55,32.2%,21.3degC
2024-02-06_12:21:06,32.2%,21.3degC
2024-02-06_12:21:16,32.4%,21.3degC
2024-02-06_12:21:26,32.4%,21.3degC
2024-02-06_12:21:37,32.3%,21.3degC
2024-02-06_12:21:47,32.4%,21.3degC
2024-02-06_12:22:44,32.3%,21.3degC
2024-02-06_12:22:54,32.4%,21.3degC
2024-02-06_12:23:05,32.4%,21.3degC
2024-02-06_12:23:15,32.3%,21.3degC
2024-02-06_12:23:26,32.2%,21.3degC
2024-02-06_12:23:36,32.2%,21.3degC
2024-02-06_12:23:46,32.1%,21.3degC
2024-02-06_12:23:57,32.1%,21.3degC
2024-02-06_12:24:07,32.2%,21.3degC
2024-02-06_12:24:17,32.4%,21.3degC
2024-02-06_12:24:28,32.4%,21.3degC
2024-02-06_12:24:38,32.4%,21.3degC
2024-02-06_12:24:48,32.5%,21.3degC
2024-02-06_12:24:59,32.6%,21.4degC
2024-02-06_12:25:09,32.6%,21.4degC
2024-02-06_12:25:20,32.5%,21.4degC
2024-02-06_12:25:30,32.5%,21.4degC
2024-02-06_12:25:40,32.6%,21.3degC
2024-02-06_12:25:51,32.7%,21.4degC
2024-02-06_12:26:01,32.4%,21.4degC
2024-02-06_12:26:11,32.8%,21.4degC
2024-02-06_12:26:22,32.6%,21.4degC
2024-02-06_12:26:32,32.7%,21.4degC
2024-02-06_12:26:42,32.7%,21.4degC
2024-02-06_12:26:53,32.7%,21.4degC
2024-02-06_12:27:03,32.8%,21.4degC
2024-02-06_12:27:13,32.8%,21.4degC
2024-02-06_12:27:24,32.8%,21.4degC
2024-02-06_12:27:34,32.8%,21.4degC
2024-02-06_12:27:45,32.7%,21.4degC
2024-02-06_12:27:55,32.8%,21.4degC
2024-02-06_12:28:05,32.8%,21.4degC
2024-02-06_12:28:16,32.8%,21.4degC
2024-02-06_12:28:26,32.7%,21.4degC
2024-02-06_12:28:36,32.6%,21.4degC
2024-02-06_12:28:47,32.6%,21.4degC
2024-02-06_12:28:57,32.7%,21.4degC
2024-02-06_12:29:07,32.6%,21.4degC
2024-02-06_12:29:18,32.6%,21.4degC
2024-02-06_12:29:28,32.8%,21.4degC
2024-02-06_12:29:39,32.8%,21.4degC
2024-02-06_12:29:49,32.8%,21.4degC
2024-02-06_12:29:59,33.0%,21.4degC
2024-02-06_12:30:10,33.2%,21.4degC
2024-02-06_12:30:20,33.0%,21.4degC
2024-02-06_12:30:30,33.0%,21.4degC
2024-02-06_12:30:41,33.0%,21.4degC
2024-02-06_12:30:51,32.8%,21.4degC
2024-02-06_12:31:01,33.0%,21.4degC
2024-02-06_12:31:12,33.0%,21.4degC
2024-02-06_12:31:22,33.0%,21.4degC
2024-02-06_12:31:32,32.8%,21.4degC
2024-02-06_12:31:43,32.8%,21.4degC
2024-02-06_12:32:40,32.8%,21.4degC
2024-02-06_12:32:50,32.9%,21.4degC
2024-02-06_12:33:00,33.0%,21.4degC
2024-02-06_12:33:11,33.2%,21.4degC
2024-02-06_12:33:21,33.2%,21.4degC
2024-02-06_12:33:32,33.0%,21.4degC
2024-02-06_12:33:42,33.1%,21.4degC
2024-02-06_12:33:52,33.1%,21.4degC
2024-02-06_12:34:03,33.0%,21.4degC
2024-02-06_12:34:13,33.0%,21.4degC
2024-02-06_12:34:23,33.1%,21.4degC
2024-02-06_12:34:34,33.1%,21.4degC
2024-02-06_12:34:44,33.0%,21.4degC
2024-02-06_12:34:54,33.1%,21.4degC
2024-02-06_12:35:05,33.0%,21.4degC
2024-02-06_12:35:15,33.0%,21.4degC
2024-02-06_12:35:25,33.0%,21.4degC
2024-02-08_16:22:21,30.6%,21.1degC
2024-02-08_16:22:31,30.6%,21.1degC
2024-02-08_16:25:32,30.7%,21.1degC
2024-02-08_16:25:42,30.5%,21.2degC
2024-02-08_16:25:52,30.5%,21.2degC
2024-02-08_16:26:03,30.5%,21.2degC
2024-02-08_16:26:13,30.6%,21.2degC
2024-02-08_16:26:24,30.4%,21.2degC
2024-02-08_16:26:34,30.5%,21.2degC
2024-02-08_16:26:44,30.5%,21.2degC
2024-02-08_16:26:55,30.6%,21.2degC
2024-02-08_16:27:05,30.4%,21.2degC
2024-02-08_16:27:15,30.5%,21.2degC
2024-02-08_16:27:26,30.5%,21.2degC
2024-02-08_16:27:36,30.5%,21.1degC
2024-02-08_16:27:46,30.4%,21.2degC
2024-02-08_16:27:57,30.5%,21.2degC
2024-02-08_16:28:07,30.5%,21.1degC
2024-02-08_16:28:18,30.5%,21.1degC
2024-02-08_16:28:28,30.5%,21.1degC
2024-02-08_16:28:38,30.4%,21.2degC
2024-02-08_16:28:49,30.5%,21.1degC
2024-02-08_16:28:59,30.5%,21.2degC
2024-02-08_16:29:09,30.5%,21.2degC
2024-02-08_16:29:20,30.4%,21.2degC
2024-02-08_16:29:30,30.4%,21.2degC
2024-02-08_16:29:40,30.5%,21.2degC
2024-02-08_16:29:51,30.4%,21.1degC
2024-02-08_16:30:01,30.5%,21.2degC
2024-02-08_16:30:12,30.4%,21.2degC
2024-02-08_16:30:22,30.3%,21.2degC
2024-02-08_16:30:32,30.3%,21.2degC
2024-02-08_16:30:43,30.2%,21.2degC
2024-02-08_16:30:53,30.3%,21.1degC
2024-02-08_16:31:03,30.3%,21.1degC
2024-02-08_16:31:14,30.3%,21.2degC
2024-02-08_16:31:24,30.3%,21.2degC
2024-02-08_16:31:34,30.3%,21.2degC
2024-02-08_16:31:45,30.3%,21.1degC
2024-02-08_16:31:55,30.3%,21.2degC
2024-02-08_16:32:05,30.3%,21.2degC
2024-02-08_16:32:16,30.2%,21.2degC
2024-02-08_16:32:26,30.3%,21.2degC
2024-02-08_16:32:37,30.1%,21.2degC
2024-02-08_16:32:47,30.3%,21.2degC
2024-02-08_16:32:57,30.2%,21.2degC
2024-02-08_16:33:08,30.2%,21.2degC
2024-02-08_16:33:18,30.2%,21.2degC
2024-02-12_15:25:04,None%,NonedegC
2024-02-12_15:25:15,36.7%,21.1degC
2024-02-12_15:25:25,36.7%,21.1degC
2024-02-12_15:25:35,36.7%,21.1degC
2024-02-12_15:25:46,36.7%,21.1degC
2024-02-12_15:25:56,36.7%,21.1degC
2024-02-12_15:26:06,36.8%,21.1degC
2024-02-12_15:26:17,36.7%,21.1degC
2024-02-12_15:26:27,36.6%,21.1degC
2024-02-12_15:26:38,36.6%,21.1degC
2024-02-12_15:26:48,36.6%,21.1degC
2024-02-12_15:26:58,36.7%,21.1degC
2024-02-12_15:27:09,36.9%,21.1degC
2024-02-12_15:27:19,36.9%,21.1degC
2024-02-12_15:27:29,36.8%,21.1degC
2024-02-12_15:27:40,36.8%,21.1degC
2024-02-12_15:27:50,36.8%,21.1degC
2024-02-12_15:28:00,36.8%,21.1degC
2024-02-12_15:28:11,36.7%,21.1degC
2024-02-12_15:28:21,36.7%,21.1degC
2024-02-12_15:28:32,36.7%,21.2degC
2024-02-12_15:28:42,36.7%,21.2degC
2024-02-12_15:28:52,36.8%,21.2degC
2024-02-12_15:29:03,36.7%,21.2degC
2024-02-12_15:29:13,36.7%,21.3degC
2024-02-12_15:29:23,36.7%,21.3degC
2024-02-12_15:29:34,36.6%,21.2degC
2024-02-12_15:29:44,36.5%,21.3degC
2024-02-12_15:29:54,36.5%,21.3degC
2024-02-12_15:30:05,36.6%,21.3degC
2024-02-12_15:30:15,36.5%,21.3degC
2024-02-12_15:30:25,36.5%,21.3degC
2024-02-12_15:30:36,36.5%,21.2degC
2024-02-12_15:30:46,36.5%,21.2degC
2024-02-12_15:30:57,36.5%,21.3degC
2024-02-12_15:31:07,36.6%,21.2degC
2024-02-12_15:31:17,36.6%,21.2degC
2024-02-12_15:31:28,36.8%,21.3degC
2024-02-12_15:31:38,36.8%,21.3degC
2024-02-12_15:31:48,36.8%,21.3degC
2024-02-12_15:31:59,36.7%,21.3degC
2024-02-12_15:32:09,36.7%,21.3degC
2024-02-12_15:32:19,36.8%,21.3degC
2024-02-12_15:32:30,36.7%,21.3degC
2024-02-12_15:32:40,36.8%,21.3degC
2024-02-12_15:32:51,36.9%,21.3degC
2024-02-12_15:33:01,36.8%,21.3degC
2024-02-12_15:33:11,36.8%,21.3degC
2024-02-12_15:33:22,36.7%,21.3degC
2024-02-12_15:33:32,36.8%,21.3degC
2024-02-12_15:33:42,36.8%,21.3degC
2024-02-12_15:33:53,36.7%,21.3degC
2024-02-12_15:34:03,36.7%,21.3degC
2024-02-12_15:34:13,36.6%,21.3degC
2024-02-12_15:34:24,36.7%,21.3degC
2024-02-12_15:34:34,36.7%,21.3degC
2024-02-12_15:34:44,36.7%,21.3degC
2024-02-12_15:34:55,36.6%,21.3degC
2024-02-12_16:37:32,36.6%,21.3degC
2024-02-12_16:37:43,35.8%,21.5degC
2024-02-12_16:37:53,35.9%,21.5degC
2024-02-12_16:38:03,35.9%,21.5degC
2024-02-12_16:38:14,35.9%,21.5degC
2024-02-12_16:38:24,35.9%,21.5degC
2024-02-12_16:38:34,35.9%,21.5degC
2024-02-12_16:38:45,35.9%,21.5degC
2024-02-12_16:38:55,36.0%,21.5degC
2024-02-12_16:39:05,35.9%,21.5degC
2024-02-12_16:39:16,35.9%,21.5degC
2024-02-12_16:39:26,35.9%,21.5degC
2024-02-12_16:39:37,35.9%,21.5degC
2024-02-12_16:39:47,36.0%,21.5degC
2024-02-12_16:39:57,36.0%,21.5degC
2024-02-12_16:40:08,36.0%,21.5degC
2024-02-12_16:40:18,35.9%,21.5degC
2024-02-12_16:40:28,36.0%,21.5degC
2024-02-12_16:40:39,36.1%,21.5degC
2024-02-12_16:40:49,36.1%,21.5degC
2024-02-12_16:40:59,35.9%,21.5degC
2024-02-12_16:41:10,35.9%,21.5degC
2024-02-12_16:41:20,35.9%,21.5degC
2024-02-12_16:41:31,35.8%,21.6degC
2024-02-12_16:41:41,35.8%,21.5degC
2024-02-12_16:41:51,35.8%,21.5degC
2024-02-12_16:42:02,35.8%,21.5degC
2024-02-12_16:42:12,35.9%,21.5degC
2024-02-12_16:42:22,35.8%,21.5degC
2024-02-12_16:42:33,35.8%,21.5degC
2024-02-12_16:42:43,35.9%,21.5degC
2024-02-12_16:42:53,35.8%,21.5degC
2024-02-12_16:43:04,36.0%,21.5degC
2024-02-12_16:43:14,36.0%,21.5degC
2024-02-12_16:43:25,36.0%,21.5degC
2024-02-12_16:43:35,36.0%,21.5degC
2024-02-12_16:43:45,36.0%,21.5degC
2024-02-12_16:43:56,36.0%,21.5degC
2024-02-12_16:44:06,36.0%,21.5degC
2024-02-12_16:44:16,35.9%,21.5degC
2024-02-12_16:44:27,36.1%,21.5degC
2024-02-12_16:44:37,36.1%,21.5degC
2024-02-12_16:44:47,36.0%,21.5degC
2024-02-12_16:44:58,36.0%,21.5degC
2024-02-12_16:45:08,35.9%,21.5degC
2024-02-12_16:45:18,35.9%,21.5degC
2024-02-12_16:45:29,35.9%,21.5degC
2024-02-12_16:45:39,35.9%,21.5degC
2024-02-12_16:45:50,35.9%,21.5degC
2024-02-12_16:46:00,35.8%,21.5degC
2024-02-12_16:46:10,35.8%,21.5degC
2024-02-12_16:46:21,35.8%,21.6degC
2024-02-12_16:46:31,35.8%,21.6degC
2024-02-12_16:46:41,35.9%,21.6degC
2024-02-12_16:46:52,35.8%,21.6degC
2024-02-12_16:47:02,35.7%,21.7degC
2024-02-12_16:47:12,35.7%,21.6degC
2024-02-12_16:47:23,35.6%,21.7degC
2024-02-12_16:47:33,35.8%,21.7degC
2024-02-12_16:47:44,35.7%,21.7degC
2024-03-06_10:13:15,29.0%,21.3degC
2024-03-06_10:13:25,29.8%,21.3degC
2024-03-06_10:13:35,29.8%,21.3degC
2024-03-06_10:13:46,29.7%,21.4degC
2024-03-06_10:13:56,29.7%,21.4degC
2024-03-06_10:14:07,29.8%,21.4degC
2024-03-06_10:14:17,30.0%,21.4degC
2024-03-06_10:14:27,29.8%,21.3degC
2024-03-06_10:14:38,29.8%,21.3degC
2024-03-06_10:14:48,29.9%,21.3degC
2024-03-06_10:14:58,29.9%,21.3degC
2024-03-06_10:15:09,29.8%,21.3degC
2024-03-06_10:15:19,29.8%,21.3degC
2024-03-06_10:15:29,29.8%,21.3degC
2024-03-06_10:15:40,29.8%,21.3degC
2024-03-06_10:15:50,29.8%,21.3degC
2024-03-06_10:16:00,29.8%,21.3degC
2024-03-06_10:16:11,29.8%,21.3degC
2024-03-06_10:16:21,29.7%,21.4degC
2024-03-06_10:16:32,29.8%,21.4degC
2024-03-06_10:16:42,29.7%,21.4degC
2024-03-06_10:16:52,29.8%,21.4degC
2024-03-06_10:17:03,29.8%,21.4degC
2024-03-06_10:17:13,29.8%,21.4degC
2024-03-06_10:17:23,29.6%,21.4degC
2024-03-06_10:17:34,29.7%,21.4degC
2024-03-06_10:17:44,29.6%,21.4degC
2024-03-06_10:17:54,29.7%,21.4degC
2024-03-06_10:18:05,29.8%,21.4degC
2024-03-06_10:18:15,29.7%,21.4degC
2024-03-06_10:18:26,29.7%,21.4degC
2024-03-06_10:18:36,29.8%,21.4degC
2024-03-11_13:39:26,32.7%,21.2degC
2024-03-11_13:39:37,33.9%,21.5degC
2024-03-11_13:39:47,33.9%,21.5degC
2024-03-11_13:39:57,34.0%,21.5degC
2024-03-11_13:40:08,34.0%,21.6degC
2024-03-11_13:40:18,34.0%,21.6degC
2024-03-11_13:40:28,33.9%,21.6degC
2024-03-11_13:40:39,34.0%,21.6degC
2024-03-11_13:40:49,33.9%,21.6degC
2024-03-11_13:40:59,34.0%,21.6degC
2024-03-11_13:41:10,33.9%,21.6degC
2024-03-11_13:41:20,34.0%,21.6degC
2024-03-11_13:41:31,34.1%,21.6degC
2024-03-11_13:41:41,34.1%,21.6degC
2024-03-11_13:41:51,34.0%,21.6degC
2024-03-11_13:42:02,34.0%,21.6degC
2024-03-11_13:42:12,34.0%,21.6degC
2024-03-11_13:42:22,34.0%,21.7degC
2024-03-11_13:42:33,34.0%,21.7degC
2024-03-11_13:42:43,34.1%,21.7degC
2024-03-11_13:42:53,34.1%,21.7degC
2024-03-11_13:43:04,34.0%,21.7degC
2024-03-11_13:43:14,34.0%,21.7degC
2024-03-11_13:43:25,34.0%,21.7degC
2024-03-11_13:43:35,34.0%,21.7degC
2024-03-11_13:43:45,34.0%,21.7degC
2024-03-11_13:43:56,34.0%,21.7degC
2024-03-11_13:44:06,34.1%,21.7degC
2024-03-11_13:44:16,34.0%,21.7degC
2024-03-11_13:44:27,34.0%,21.7degC
2024-03-11_13:44:37,34.0%,21.7degC
2024-03-11_13:44:47,34.0%,21.7degC
2024-03-11_13:44:58,33.9%,21.7degC
2024-03-11_13:45:08,33.9%,21.7degC
2024-03-11_13:45:18,33.9%,21.7degC
2024-03-11_13:45:29,33.9%,21.7degC
2024-03-11_13:45:39,33.8%,21.7degC
2024-03-11_13:45:50,33.8%,21.7degC
2024-03-11_13:46:00,33.9%,21.7degC
2024-03-11_13:46:10,33.9%,21.7degC
2024-03-11_13:46:21,33.9%,21.7degC
2024-03-11_13:46:31,33.9%,21.7degC
2024-03-11_13:46:41,33.7%,21.7degC
2024-03-11_13:46:52,33.7%,21.7degC
2024-03-11_13:47:02,33.9%,21.7degC
2024-03-11_13:47:12,33.9%,21.8degC
2024-03-11_13:47:23,33.8%,21.8degC
2024-03-11_13:47:33,33.7%,21.8degC
2024-03-11_13:47:44,33.6%,21.9degC
2024-03-11_13:47:54,33.5%,21.9degC
2024-03-11_13:48:04,33.5%,21.9degC
2024-03-11_13:56:16,33.4%,21.9degC
2024-03-11_13:56:27,33.5%,21.9degC
2024-03-11_13:56:37,33.5%,21.9degC
2024-03-11_13:56:47,33.5%,21.9degC
2024-03-11_13:56:58,33.6%,21.9degC
2024-03-11_13:57:08,33.6%,21.9degC
2024-03-11_13:57:18,33.5%,21.9degC
2024-03-11_13:57:29,33.4%,21.9degC
2024-03-11_13:57:39,33.4%,21.9degC
2024-03-11_13:57:49,33.6%,21.9degC
2024-03-11_13:58:00,33.5%,21.9degC
2024-03-11_13:58:10,33.5%,21.9degC
2024-03-11_13:58:21,33.6%,21.9degC
2024-03-11_13:58:31,33.5%,21.9degC
2024-03-11_13:58:41,33.6%,21.9degC
2024-03-11_13:58:52,33.6%,21.9degC
2024-03-11_13:59:02,33.7%,21.9degC
2024-03-11_13:59:12,33.7%,21.9degC
2024-03-11_13:59:23,33.7%,21.8degC
2024-03-11_13:59:33,33.8%,21.9degC
2024-03-11_13:59:43,33.8%,21.9degC
2024-03-11_13:59:54,33.8%,21.9degC
2024-03-11_14:00:04,33.6%,21.8degC
2024-03-11_14:00:15,33.6%,21.8degC
2024-03-11_14:00:25,33.7%,21.8degC
2024-03-11_14:00:35,33.7%,21.8degC
2024-03-11_14:00:46,33.6%,21.8degC
2024-03-11_14:00:56,33.7%,21.7degC
2024-03-11_14:01:06,33.5%,21.8degC
2024-03-11_14:01:17,33.6%,21.7degC
2024-03-11_14:01:27,33.8%,21.7degC
2024-03-11_14:01:37,33.6%,21.8degC
2024-03-11_14:01:48,33.6%,21.7degC
2024-03-11_14:01:58,33.6%,21.7degC
2024-03-11_14:02:08,33.6%,21.7degC
2024-03-11_14:02:19,33.6%,21.7degC
2024-03-11_14:02:29,33.7%,21.7degC
2024-03-11_14:02:40,33.7%,21.7degC
2024-03-11_14:02:50,33.7%,21.7degC
2024-03-11_14:03:00,33.6%,21.7degC
2024-03-11_14:03:11,33.6%,21.7degC
2024-03-11_14:03:21,33.7%,21.7degC
2024-03-11_14:03:31,33.6%,21.8degC
2024-03-11_14:03:42,33.6%,21.7degC
2024-03-11_14:03:52,33.8%,21.8degC
2024-03-11_14:04:02,33.7%,21.7degC
2024-03-11_14:04:13,33.6%,21.7degC
2024-03-11_14:04:23,33.8%,21.8degC
2024-03-11_14:04:34,33.7%,21.8degC
2024-03-11_14:04:44,33.9%,21.8degC
2024-03-11_14:04:54,33.8%,21.8degC
2024-03-11_14:05:05,33.7%,21.8degC
2024-03-11_14:05:15,33.9%,21.8degC
2024-03-11_14:05:25,33.8%,21.8degC
2024-03-11_14:05:36,33.7%,21.8degC
2024-03-11_14:05:46,33.6%,21.9degC
2024-03-11_14:05:56,33.6%,21.8degC
2024-03-11_14:06:07,33.6%,21.8degC
2024-03-11_14:06:17,33.6%,21.8degC
2024-03-11_14:06:27,33.5%,21.8degC
2024-03-11_14:06:38,33.5%,21.8degC
2024-03-11_14:06:48,33.5%,21.8degC
2024-03-11_14:06:59,33.4%,21.8degC
2024-03-11_14:07:09,33.5%,21.8degC
2024-03-11_14:07:19,33.5%,21.8degC
2024-03-11_14:07:30,33.5%,21.8degC
2024-03-11_14:07:40,33.5%,21.8degC
2024-03-11_14:07:50,33.3%,21.8degC
2024-03-11_14:08:01,33.4%,21.8degC
2024-03-11_14:08:11,33.4%,21.7degC
2024-03-11_14:08:21,33.4%,21.7degC
2024-03-11_14:08:32,33.4%,21.7degC
2024-03-11_14:08:42,33.4%,21.7degC
2024-03-11_14:08:53,33.4%,21.7degC
2024-03-11_14:09:03,33.4%,21.7degC
2024-03-11_14:09:13,33.4%,21.7degC
2024-03-11_14:09:24,33.4%,21.7degC
2024-03-18_15:17:15,29.2%,21.9degC
2024-03-18_15:17:25,28.3%,21.7degC
2024-03-18_15:17:36,28.3%,21.7degC
2024-03-18_15:17:46,28.4%,21.7degC
2024-03-18_15:17:56,28.3%,21.7degC
2024-03-18_15:18:07,28.4%,21.7degC
2024-03-18_15:18:17,28.3%,21.7degC
2024-03-18_15:18:27,28.3%,21.8degC
2024-03-18_15:18:38,28.2%,21.8degC
2024-03-18_15:18:48,28.2%,21.7degC
2024-03-18_15:18:59,28.3%,21.7degC
2024-03-18_15:19:09,28.3%,21.7degC
2024-03-18_15:19:19,28.2%,21.8degC
2024-03-18_15:19:30,28.3%,21.8degC
2024-03-18_15:19:40,28.3%,21.7degC
2024-03-18_15:19:50,28.3%,21.8degC
2024-03-18_15:20:01,28.3%,21.8degC
2024-03-18_15:20:11,28.4%,21.8degC
2024-03-18_15:20:21,28.3%,21.7degC
2024-03-18_15:20:32,28.3%,21.7degC
2024-03-18_15:20:42,28.3%,21.7degC
2024-03-18_15:20:53,28.3%,21.8degC
2024-03-18_15:21:03,28.3%,21.7degC
2024-03-18_15:21:13,28.2%,21.8degC
2024-03-18_15:21:24,28.2%,21.8degC
2024-03-18_15:21:34,28.3%,21.8degC
2024-03-18_15:21:44,28.3%,21.8degC
2024-03-18_15:21:55,28.3%,21.8degC
2024-03-18_15:22:05,28.3%,21.8degC
2024-03-18_15:22:15,28.3%,21.8degC
2024-03-18_15:22:26,28.3%,21.8degC
2024-03-18_15:22:36,28.2%,21.8degC
2024-03-18_15:22:46,28.2%,21.7degC
2024-03-18_15:22:57,28.2%,21.8degC
2024-03-18_15:23:07,28.2%,21.7degC
2024-03-18_15:23:18,28.2%,21.8degC
2024-03-18_15:23:28,28.2%,21.7degC
2024-03-18_15:23:38,28.2%,21.8degC
2024-03-18_15:23:49,28.3%,21.7degC
2024-03-18_15:23:59,28.3%,21.7degC
2024-03-18_15:24:09,28.3%,21.8degC
2024-03-18_15:24:20,28.3%,21.8degC
2024-03-18_15:24:30,28.2%,21.8degC
2024-03-18_15:24:40,28.2%,21.8degC
2024-03-18_15:24:51,28.2%,21.8degC
2024-03-18_15:25:01,28.2%,21.8degC
2024-03-18_15:25:12,28.2%,21.8degC
2024-03-18_15:25:22,28.1%,21.8degC
2024-03-18_15:25:32,28.2%,21.7degC
2024-03-18_15:25:43,28.2%,21.7degC
2024-03-18_15:25:53,28.2%,21.7degC
2024-03-18_15:26:03,28.2%,21.7degC
2024-03-18_15:26:14,28.2%,21.7degC
2024-03-18_15:26:24,28.2%,21.7degC
2024-03-18_15:26:34,28.2%,21.8degC
2024-03-18_15:26:45,28.2%,21.7degC
2024-03-18_15:26:55,28.2%,21.8degC
2024-03-18_15:27:05,28.2%,21.8degC
2024-03-18_15:27:16,28.3%,21.7degC
2024-03-18_15:27:26,28.1%,21.7degC
2024-03-18_15:27:37,28.1%,21.7degC
2024-03-18_15:27:47,28.2%,21.7degC
2024-03-18_15:27:57,28.2%,21.7degC
2024-03-18_15:28:08,28.3%,21.7degC
2024-03-18_15:28:18,28.2%,21.7degC
2024-03-18_15:28:28,28.1%,21.7degC
2024-03-18_15:28:39,28.2%,21.7degC
2024-03-18_15:28:49,28.2%,21.7degC
2024-03-18_15:28:59,28.2%,21.7degC
2024-03-18_15:29:10,28.1%,21.7degC
2024-03-18_15:29:20,28.3%,21.7degC
2024-03-18_15:29:31,28.1%,21.7degC
2024-03-18_15:29:41,28.3%,21.7degC
2024-03-18_15:29:51,28.3%,21.7degC
2024-03-18_15:30:02,28.1%,21.7degC
2024-03-18_15:30:12,28.2%,21.7degC
2024-03-18_15:30:22,28.3%,21.7degC
2024-03-18_15:30:33,28.3%,21.7degC
2024-03-18_15:30:43,28.2%,21.7degC
2024-03-18_15:30:53,28.3%,21.8degC
2024-03-18_15:31:04,28.2%,21.7degC
2024-03-18_15:31:14,28.3%,21.8degC
2024-03-18_15:31:24,28.2%,21.8degC
2024-03-18_15:31:35,28.3%,21.8degC
2024-03-18_15:31:45,28.2%,21.8degC
2024-03-18_15:31:56,28.2%,21.8degC
2024-03-18_15:32:06,28.2%,21.9degC
2024-03-18_15:32:16,28.4%,21.9degC
2024-03-18_15:32:27,28.4%,21.9degC
2024-03-18_15:32:37,28.4%,21.9degC
2024-03-18_15:32:47,28.4%,21.9degC
2024-03-18_15:32:58,28.4%,21.9degC
2024-03-18_15:33:08,28.4%,21.9degC
2024-03-18_15:33:18,28.3%,21.9degC
2024-03-18_15:33:29,28.3%,21.9degC
2024-03-18_15:33:39,28.3%,21.9degC
2024-03-18_15:33:50,28.2%,21.9degC
2024-03-18_15:34:00,28.1%,21.9degC
2024-03-18_15:34:10,28.1%,21.9degC
2024-03-18_15:34:21,28.1%,21.9degC
2024-03-18_15:34:31,28.0%,21.9degC
2024-03-18_15:34:41,28.2%,21.9degC
2024-03-18_15:34:52,28.1%,21.9degC
2024-03-18_15:35:02,28.1%,21.9degC
2024-03-18_15:35:12,28.1%,21.9degC
2024-03-18_15:35:23,28.1%,21.9degC
2024-03-18_15:35:33,28.0%,21.9degC
2024-03-18_15:35:43,28.2%,21.9degC
2024-03-18_15:35:54,28.0%,21.9degC
2024-03-18_15:36:04,28.2%,21.8degC
2024-03-18_15:36:15,28.1%,21.8degC
2024-03-18_15:36:25,28.0%,21.9degC
2024-03-18_15:36:35,27.9%,21.9degC
2024-03-18_15:36:46,27.9%,21.9degC
2024-03-18_15:36:56,28.1%,21.9degC
2024-03-18_15:37:06,28.2%,21.9degC
2024-03-18_15:37:17,28.1%,21.8degC
2024-03-18_15:37:27,28.1%,21.8degC
2024-03-18_15:37:37,28.1%,21.8degC
2024-03-18_15:37:48,28.1%,21.8degC
2024-03-18_15:37:58,28.1%,21.9degC
