,,,,,
basic measures - validation,,,,,
packets,25181,24963,25829,23831,24697
""
basic measures - validation,,,,,
packets,8332,8332,8332,8332,8332
""
training - person_ratios,,,,,
fold,0,1,2,3,4
Alejandro,13.0%,13.1%,12.7%,-,-
Daniel,10.8%,-,-,11.4%,11.0%
Florian,-,-,11.8%,-,12.3%
Ian,-,10.4%,-,10.9%,-
Leo,15.2%,15.3%,14.8%,16.0%,15.5%
Saeed,11.0%,11.1%,10.7%,11.6%,11.2%
nobody,50.0%,50.0%,50.0%,50.0%,50.0%
""
validation - person_ratios,,,,,
fold,0,1,2,3,4
Ana,33.3%,33.3%,33.3%,33.3%,33.3%
HUSSEIN,16.7%,16.7%,16.7%,16.7%,16.7%
nobody,50.0%,50.0%,50.0%,50.0%,50.0%
""
training - day_ratios,,,,,
fold,0,1,2,3,4
February_12,19.8%,19.9%,19.5%,20.4%,20.0%
February_6,11.1%,11.2%,12.0%,11.0%,11.8%
February_8,12.9%,12.9%,12.9%,12.9%,12.9%
January_11,26.0%,20.5%,25.6%,19.5%,24.9%
January_16,9.3%,9.4%,9.2%,9.6%,9.4%
January_19,9.4%,14.6%,9.3%,15.1%,9.5%
January_31,11.5%,11.5%,11.5%,11.5%,11.5%
""
validation - day_ratios,,,,,
fold,0,1,2,3,4
March_11,49.4%,49.4%,49.4%,49.4%,49.4%
March_18,42.8%,42.8%,42.8%,42.8%,42.8%
March_6,7.8%,7.8%,7.8%,7.8%,7.8%
""
