,,,,,
basic measures - validation,,,,,
packets,31400,30915,31931,31400,30915
""
basic measures - validation,,,,,
packets,13448,13243,13677,8061,8061
""
training - person_ratios,,,,,
fold,0,1,2,3,4
Alejandro,10.4%,-,10.3%,10.4%,-
Ana,18.0%,18.3%,17.7%,18.0%,18.3%
Florian,-,9.8%,9.5%,-,9.8%
Ian,12.7%,12.9%,12.5%,12.7%,12.9%
Saeed,8.8%,9.0%,-,8.8%,9.0%
nobody,50.0%,50.0%,50.0%,50.0%,50.0%
""
validation - person_ratios,,,,,
fold,0,1,2,3,4
Daniel,-,-,-,33.7%,33.7%
Leo,41.3%,41.3%,41.3%,-,-
Mingqing,8.8%,8.8%,8.8%,16.4%,16.4%
nobody,50.0%,50.0%,50.0%,50.0%,50.0%
""
training - day_ratios,,,,,
fold,0,1,2,3,4
February_12,14.5%,14.7%,5.7%,14.5%,14.7%
February_6,13.2%,13.8%,18.0%,13.2%,13.8%
February_8,8.4%,8.4%,8.4%,8.4%,8.4%
January_11,16.1%,15.1%,20.4%,16.1%,15.1%
January_16,2.8%,2.8%,2.8%,2.8%,2.8%
January_19,6.8%,6.9%,6.7%,6.8%,6.9%
January_31,7.5%,7.5%,7.5%,7.5%,7.5%
March_11,10.1%,10.2%,10.1%,10.1%,10.2%
March_18,17.9%,18.0%,17.7%,17.9%,18.0%
March_6,2.7%,2.7%,2.7%,2.7%,2.7%
""
validation - day_ratios,,,,,
fold,0,1,2,3,4
February_12,5.7%,5.7%,5.7%,5.7%,5.7%
February_6,8.8%,8.8%,8.8%,32.5%,32.5%
February_8,8.4%,8.4%,8.4%,8.4%,8.4%
January_11,13.6%,13.6%,13.6%,23.0%,23.0%
January_16,11.3%,11.3%,11.3%,2.8%,2.8%
January_19,11.5%,11.5%,11.5%,2.7%,2.7%
January_31,7.5%,7.5%,7.5%,7.5%,7.5%
March_11,6.1%,6.1%,6.1%,6.1%,6.1%
March_18,16.4%,16.3%,16.3%,8.7%,8.7%
March_6,11.0%,11.0%,11.0%,2.7%,2.7%
""
