,,,,,
basic measures - validation,,,,,
packets,22746,23612,23395,22263,23279
""
basic measures - validation,,,,,
packets,9746,10116,10021,9538,9975
""
training - person_ratios,,,,,
fold,0,1,2,3,4
Alejandro,14.4%,13.9%,14.0%,-,14.1%
Daniel,11.9%,11.5%,-,12.2%,11.7%
Florian,-,12.9%,13.0%,13.7%,13.1%
Ian,11.5%,-,11.1%,11.7%,11.2%
Saeed,12.2%,11.7%,11.9%,12.5%,-
nobody,50.0%,50.0%,50.0%,50.0%,50.0%
""
validation - person_ratios,,,,,
fold,0,1,2,3,4
Ana,26.7%,26.7%,26.7%,26.7%,26.7%
Leo,23.3%,23.3%,23.3%,23.3%,23.3%
nobody,50.0%,50.0%,50.0%,50.0%,50.0%
""
training - day_ratios,,,,,
fold,0,1,2,3,4
February_12,21.0%,20.5%,20.6%,21.3%,8.8%
February_6,18.0%,18.6%,18.8%,19.0%,24.5%
February_8,12.9%,12.9%,12.9%,12.9%,12.9%
January_11,22.5%,28.1%,22.2%,21.2%,28.4%
January_16,4.3%,4.3%,4.3%,4.3%,4.3%
January_19,9.8%,4.1%,9.7%,9.9%,9.7%
January_31,11.5%,11.5%,11.5%,11.5%,11.5%
""
validation - day_ratios,,,,,
fold,0,1,2,3,4
January_16,20.2%,20.2%,20.2%,20.2%,20.2%
March_11,29.6%,29.6%,29.6%,29.6%,29.6%
March_18,50.2%,50.2%,50.3%,50.3%,50.2%
""
