MLP measures:

	hidden_layer_sizes: (1000, 500)
	max_iter: 8
	activation: relu
	solver: adam
	warm_start: False
	early_stopping: True
	verbose: True

--------------- Fold 1 ---------------

  Accuracy:	80.02%
  Precision:	71.46%
  Recall:	100.00%
  F1:		83.35%

  TN: 30.02%
  FN: 0.00%
  TP: 50.01%
  FP: 19.98%
---------------------------------------

--------------- Fold 2 ---------------

  Accuracy:	80.00%
  Precision:	71.45%
  Recall:	99.97%
  F1:		83.33%

  TN: 30.01%
  FN: 0.02%
  TP: 49.99%
  FP: 19.98%
---------------------------------------

--------------- Fold 3 ---------------

  Accuracy:	80.09%
  Precision:	71.55%
  Recall:	99.93%
  F1:		83.39%

  TN: 30.12%
  FN: 0.03%
  TP: 49.97%
  FP: 19.87%
---------------------------------------

--------------- Fold 4 ---------------

  Accuracy:	80.03%
  Precision:	71.46%
  Recall:	100.00%
  F1:		83.36%

  TN: 30.02%
  FN: 0.00%
  TP: 50.01%
  FP: 19.97%
---------------------------------------

--------------- Fold 5 ---------------

  Accuracy:	80.12%
  Precision:	71.56%
  Recall:	100.00%
  F1:		83.42%

  TN: 30.11%
  FN: 0.00%
  TP: 50.01%
  FP: 19.88%
---------------------------------------
