,,,,,
training - person_ratios,,,,,
fold,0,1,2,3,4
Alejandro,6.8%,6.9%,6.9%,6.7%,6.9%
Ana,-,-,-,-,6.2%
Daniel,-,6.0%,-,-,-
Florian,-,-,-,7.2%,-
Hussein,6.8%,-,-,-,-
Ian,11.9%,12.1%,12.1%,11.8%,12.0%
Leo,11.9%,12.1%,12.1%,11.7%,12.0%
Mingqing,-,-,6.1%,-,-
Saeed,12.7%,12.9%,12.9%,12.5%,12.8%
nobody,50.0%,50.0%,50.0%,50.0%,50.0%
""
validation - person_ratios,,,,,
fold,0,1,2,3,4
Ana,25.9%,25.3%,26.0%,-,-
Daniel,-,-,24.0%,24.3%,24.8%
Florian,24.2%,-,-,-,25.2%
Sophie,-,24.7%,-,25.7%,-
nobody,50.0%,50.0%,50.0%,50.0%,50.0%
""
training - day_ratios,,,,,
fold,0,1,2,3,4
February_12,23.2%,23.5%,23.4%,23.1%,23.4%
February_6,19.6%,19.1%,19.1%,19.9%,19.2%
February_8,15.5%,15.5%,15.5%,15.5%,15.5%
January_16,10.9%,11.1%,11.0%,10.9%,11.0%
January_19,16.9%,17.1%,17.1%,16.8%,17.1%
January_31,13.8%,13.8%,13.8%,13.8%,13.8%
""
validation - day_ratios,,,,,
fold,0,1,2,3,4
February_8,30.2%,30.2%,30.2%,30.2%,30.2%
January_11,69.8%,69.8%,69.8%,69.8%,69.8%
""
