,,,,,
basic measures - validation,,,,,
packets,27469,27252,28120,26120,26988
""
basic measures - validation,,,,,
packets,8332,8332,8332,8332,8332
""
training - person_ratios,,,,,
fold,0,1,2,3,4
Alejandro,11.9%,12.0%,11.7%,-,-
Daniel,9.9%,-,-,10.4%,10.1%
Florian,-,-,10.8%,-,11.3%
Ian,-,9.6%,-,10.0%,-
Leo,18.1%,18.2%,17.7%,19.0%,18.4%
Saeed,10.1%,10.2%,9.9%,10.6%,10.3%
nobody,50.0%,50.0%,50.0%,50.0%,50.0%
""
validation - person_ratios,,,,,
fold,0,1,2,3,4
Ana,33.3%,33.3%,33.3%,33.3%,33.3%
HUSSEIN,16.7%,16.7%,16.7%,16.7%,16.7%
nobody,50.0%,50.0%,50.0%,50.0%,50.0%
""
training - day_ratios,,,,,
fold,0,1,2,3,4
February_12,17.5%,17.6%,17.3%,18.0%,17.7%
February_6,10.2%,10.3%,11.0%,10.0%,10.8%
February_8,10.9%,10.9%,10.8%,10.9%,10.8%
January_11,23.2%,18.2%,22.9%,17.2%,22.2%
January_16,8.2%,8.3%,8.1%,8.5%,8.3%
January_19,8.3%,13.1%,8.2%,13.5%,8.4%
January_31,9.7%,9.7%,9.7%,9.7%,9.7%
March_18,12.1%,12.1%,12.0%,12.3%,12.2%
""
validation - day_ratios,,,,,
fold,0,1,2,3,4
March_11,58.7%,58.7%,58.7%,58.7%,58.7%
March_18,29.4%,29.4%,29.4%,29.4%,29.4%
March_6,12.0%,12.0%,12.0%,12.0%,12.0%
""
