,,,,,
basic measures - validation,,,,,
packets,16716,16336,16370,16945,16428
""
basic measures - validation,,,,,
packets,5511,5511,5511,5511,5309
""
training - person_ratios,,,,,
fold,0,1,2,3,4
Alejandro,8.9%,9.1%,9.1%,8.8%,9.1%
Ana,-,-,-,-,8.2%
Daniel,-,8.0%,-,-,-
Florian,-,-,-,9.5%,-
Hussein,8.9%,-,-,-,-
Ian,15.6%,16.0%,15.9%,15.4%,15.9%
Mingqing,-,-,8.1%,-,-
Saeed,16.6%,17.0%,16.9%,16.4%,16.9%
nobody,50.0%,50.0%,50.0%,50.0%,50.0%
""
validation - person_ratios,,,,,
fold,0,1,2,3,4
Ana,27.9%,27.9%,27.9%,27.9%,-
Florian,-,-,-,-,27.0%
Leo,22.2%,22.2%,22.2%,22.2%,23.0%
nobody,50.0%,50.0%,50.0%,50.0%,50.0%
""
training - day_ratios,,,,,
fold,0,1,2,3,4
February_12,31.9%,32.3%,32.3%,31.7%,32.2%
February_6,25.7%,25.1%,25.2%,26.0%,25.3%
January_16,7.4%,7.4%,7.4%,7.4%,7.4%
January_19,15.0%,15.1%,15.1%,14.8%,15.1%
January_31,20.0%,20.0%,20.0%,20.0%,20.0%
""
validation - day_ratios,,,,,
fold,0,1,2,3,4
February_8,30.2%,30.2%,30.2%,30.2%,30.2%
January_11,69.8%,69.8%,69.8%,69.8%,69.8%
""
